01/Jul/1995-00	80970389
01/Jul/1995-01	81563201
01/Jul/1995-02	57153751
01/Jul/1995-03	37288776
01/Jul/1995-04	29316258
01/Jul/1995-05	33089205
01/Jul/1995-06	37581902
01/Jul/1995-07	35937993
01/Jul/1995-08	53250665
01/Jul/1995-09	61142200
01/Jul/1995-10	65757456
01/Jul/1995-11	86241539
01/Jul/1995-12	67946158
01/Jul/1995-13	72320056
01/Jul/1995-14	73233706
01/Jul/1995-15	102446113
01/Jul/1995-16	83375209
01/Jul/1995-17	92385583
01/Jul/1995-18	80369988
01/Jul/1995-19	72261569
01/Jul/1995-20	75790040
01/Jul/1995-21	94469848
01/Jul/1995-22	79564841
01/Jul/1995-23	63944451
02/Jul/1995-00	64899785
02/Jul/1995-01	65265889
02/Jul/1995-02	47375798
02/Jul/1995-03	37265597
02/Jul/1995-04	26724753
02/Jul/1995-05	32417262
02/Jul/1995-06	44477518
02/Jul/1995-07	30434495
02/Jul/1995-08	39829501
02/Jul/1995-09	62168129
02/Jul/1995-10	55956358
02/Jul/1995-11	61006692
02/Jul/1995-12	88342420
02/Jul/1995-13	71766797
02/Jul/1995-14	82090186
02/Jul/1995-15	73736374
02/Jul/1995-16	63223622
02/Jul/1995-17	90718674
02/Jul/1995-18	103260077
02/Jul/1995-19	64907848
02/Jul/1995-20	69418785
02/Jul/1995-21	94647626
02/Jul/1995-22	84104931
02/Jul/1995-23	77545176
03/Jul/1995-00	84178916
03/Jul/1995-01	62035501
03/Jul/1995-02	49672148
03/Jul/1995-03	60878583
03/Jul/1995-04	41839787
03/Jul/1995-05	43089277
03/Jul/1995-06	51136510
03/Jul/1995-07	64193062
03/Jul/1995-08	90380503
03/Jul/1995-09	89200403
03/Jul/1995-10	85094971
03/Jul/1995-11	110127062
03/Jul/1995-12	117684454
03/Jul/1995-13	120507841
03/Jul/1995-14	120831710
03/Jul/1995-15	129982601
03/Jul/1995-16	116706578
03/Jul/1995-17	123399781
03/Jul/1995-18	81737876
03/Jul/1995-19	88105489
03/Jul/1995-20	90106494
03/Jul/1995-21	101625143
03/Jul/1995-22	81684513
03/Jul/1995-23	80867363
04/Jul/1995-00	79271513
04/Jul/1995-01	61357321
04/Jul/1995-02	61217454
04/Jul/1995-03	49646880
04/Jul/1995-04	40866663
04/Jul/1995-05	40707334
04/Jul/1995-06	43321667
04/Jul/1995-07	43996690
04/Jul/1995-08	70830494
04/Jul/1995-09	79015765
04/Jul/1995-10	87173519
04/Jul/1995-11	96055349
04/Jul/1995-12	90652135
04/Jul/1995-13	89804126
04/Jul/1995-14	98283346
04/Jul/1995-15	114141291
04/Jul/1995-16	98891217
04/Jul/1995-17	95728075
04/Jul/1995-18	75284786
04/Jul/1995-19	69256819
04/Jul/1995-20	58151728
04/Jul/1995-21	63429636
04/Jul/1995-22	66988741
04/Jul/1995-23	70194021
05/Jul/1995-00	54861991
05/Jul/1995-01	41768470
05/Jul/1995-02	35652798
05/Jul/1995-03	42538265
05/Jul/1995-04	30297407
05/Jul/1995-05	32244621
05/Jul/1995-06	40316421
05/Jul/1995-07	84450275
05/Jul/1995-08	96543155
05/Jul/1995-09	93235203
05/Jul/1995-10	107369862
05/Jul/1995-11	110748184
05/Jul/1995-12	127119555
05/Jul/1995-13	108836218
05/Jul/1995-14	164387463
05/Jul/1995-15	151259105
05/Jul/1995-16	162124468
05/Jul/1995-17	114958951
05/Jul/1995-18	102208217
05/Jul/1995-19	97206747
05/Jul/1995-20	60430878
05/Jul/1995-21	63030617
05/Jul/1995-22	69014368
05/Jul/1995-23	60356197
06/Jul/1995-00	54434388
06/Jul/1995-01	52182497
06/Jul/1995-02	37081802
06/Jul/1995-03	28404830
06/Jul/1995-04	27237828
06/Jul/1995-05	27514134
06/Jul/1995-06	34428320
06/Jul/1995-07	58433021
06/Jul/1995-08	100316125
06/Jul/1995-09	109585632
06/Jul/1995-10	139315234
06/Jul/1995-11	138389481
06/Jul/1995-12	154292608
06/Jul/1995-13	158718748
06/Jul/1995-14	151818360
06/Jul/1995-15	139884256
06/Jul/1995-16	128406430
06/Jul/1995-17	122673295
06/Jul/1995-18	125322562
06/Jul/1995-19	95255197
06/Jul/1995-20	77738869
06/Jul/1995-21	67474464
06/Jul/1995-22	88715551
06/Jul/1995-23	101123925
07/Jul/1995-00	55688347
07/Jul/1995-01	56244492
07/Jul/1995-02	47326862
07/Jul/1995-03	36984357
07/Jul/1995-04	24991865
07/Jul/1995-05	24150227
07/Jul/1995-06	29412376
07/Jul/1995-07	46611217
07/Jul/1995-08	103517958
07/Jul/1995-09	104266442
07/Jul/1995-10	125775329
07/Jul/1995-11	150953915
07/Jul/1995-12	138227185
07/Jul/1995-13	157370952
07/Jul/1995-14	111456316
07/Jul/1995-15	132188042
07/Jul/1995-16	131999562
07/Jul/1995-17	106933140
07/Jul/1995-18	78925213
07/Jul/1995-19	52023626
07/Jul/1995-20	53141227
07/Jul/1995-21	60479135
07/Jul/1995-22	59396231
07/Jul/1995-23	64050446
08/Jul/1995-00	51737431
08/Jul/1995-01	38611249
08/Jul/1995-02	30862427
08/Jul/1995-03	24904645
08/Jul/1995-04	12720488
08/Jul/1995-05	24415936
08/Jul/1995-06	25453712
08/Jul/1995-07	24495035
08/Jul/1995-08	21667335
08/Jul/1995-09	34246485
08/Jul/1995-10	40638135
08/Jul/1995-11	33611909
08/Jul/1995-12	42932396
08/Jul/1995-13	54382676
08/Jul/1995-14	47811420
08/Jul/1995-15	56556853
08/Jul/1995-16	44643044
08/Jul/1995-17	52342285
08/Jul/1995-18	41617443
08/Jul/1995-19	44351702
08/Jul/1995-20	41829094
08/Jul/1995-21	47494489
08/Jul/1995-22	49800219
08/Jul/1995-23	40972338
09/Jul/1995-00	32303638
09/Jul/1995-01	29093516
09/Jul/1995-02	24300696
09/Jul/1995-03	23841619
09/Jul/1995-04	18478286
09/Jul/1995-05	11334028
09/Jul/1995-06	12406168
09/Jul/1995-07	6918054
09/Jul/1995-08	15821434
09/Jul/1995-09	31263321
09/Jul/1995-10	32272017
09/Jul/1995-11	40534104
09/Jul/1995-12	36545843
09/Jul/1995-13	45375564
09/Jul/1995-14	38494184
09/Jul/1995-15	28539692
09/Jul/1995-16	41610637
09/Jul/1995-17	46676588
09/Jul/1995-18	41728982
09/Jul/1995-19	35772645
09/Jul/1995-20	48715888
09/Jul/1995-21	43511799
09/Jul/1995-22	38514129
09/Jul/1995-23	30002345
10/Jul/1995-00	28037583
10/Jul/1995-01	32960974
10/Jul/1995-02	23746948
10/Jul/1995-03	22283101
10/Jul/1995-04	11396069
10/Jul/1995-05	11921298
10/Jul/1995-06	23041111
10/Jul/1995-07	31239172
10/Jul/1995-08	52575153
10/Jul/1995-09	79381500
10/Jul/1995-10	81327538
10/Jul/1995-11	83294548
10/Jul/1995-12	83202111
10/Jul/1995-13	77096541
10/Jul/1995-14	98082058
10/Jul/1995-15	104630596
10/Jul/1995-16	100757235
10/Jul/1995-17	93119224
10/Jul/1995-18	74777022
10/Jul/1995-19	67251524
10/Jul/1995-20	41743503
10/Jul/1995-21	46264857
10/Jul/1995-22	60448560
10/Jul/1995-23	47991942
11/Jul/1995-00	38521246
11/Jul/1995-01	31266821
11/Jul/1995-02	23011315
11/Jul/1995-03	21877735
11/Jul/1995-04	25055848
11/Jul/1995-05	19955872
11/Jul/1995-06	24882122
11/Jul/1995-07	37867825
11/Jul/1995-08	57511413
11/Jul/1995-09	56948927
11/Jul/1995-10	66288491
11/Jul/1995-11	78743778
11/Jul/1995-12	81649913
11/Jul/1995-13	90565252
11/Jul/1995-14	93168240
11/Jul/1995-15	101602711
11/Jul/1995-16	108789600
11/Jul/1995-17	85421038
11/Jul/1995-18	69977241
11/Jul/1995-19	63399675
11/Jul/1995-20	58116543
11/Jul/1995-21	49823914
11/Jul/1995-22	59577639
11/Jul/1995-23	43836201
12/Jul/1995-00	43350302
12/Jul/1995-01	31948237
12/Jul/1995-02	32761444
12/Jul/1995-03	35967772
12/Jul/1995-04	21704774
12/Jul/1995-05	25313094
12/Jul/1995-06	24394655
12/Jul/1995-07	38040713
12/Jul/1995-08	55560114
12/Jul/1995-09	83331523
12/Jul/1995-10	90226604
12/Jul/1995-11	104173865
12/Jul/1995-12	112528374
12/Jul/1995-13	123372878
12/Jul/1995-14	125147457
12/Jul/1995-15	95632999
12/Jul/1995-16	94125578
12/Jul/1995-17	103152216
12/Jul/1995-18	102086080
12/Jul/1995-19	71880227
12/Jul/1995-20	87807911
12/Jul/1995-21	69153437
12/Jul/1995-22	67723987
12/Jul/1995-23	75588653
13/Jul/1995-00	64190951
13/Jul/1995-01	58917710
13/Jul/1995-02	52616543
13/Jul/1995-03	38684703
13/Jul/1995-04	43294861
13/Jul/1995-05	47151051
13/Jul/1995-06	59096438
13/Jul/1995-07	98990060
13/Jul/1995-08	189321591
13/Jul/1995-09	197578955
13/Jul/1995-10	203841155
13/Jul/1995-11	210353383
13/Jul/1995-12	192068924
13/Jul/1995-13	178896260
13/Jul/1995-14	171824221
13/Jul/1995-15	172773932
13/Jul/1995-16	166998363
13/Jul/1995-17	70797133
13/Jul/1995-18	94874052
13/Jul/1995-19	48896712
13/Jul/1995-20	46580572
13/Jul/1995-21	84253756
13/Jul/1995-22	61109098
13/Jul/1995-23	81297942
14/Jul/1995-00	70596933
14/Jul/1995-01	52191264
14/Jul/1995-02	43392138
14/Jul/1995-03	45980488
14/Jul/1995-04	49867791
14/Jul/1995-05	43602805
14/Jul/1995-06	31645349
14/Jul/1995-07	76809303
14/Jul/1995-08	89998080
14/Jul/1995-09	103706854
14/Jul/1995-10	122656024
14/Jul/1995-11	102650995
14/Jul/1995-12	108287900
14/Jul/1995-13	120146666
14/Jul/1995-14	112786083
14/Jul/1995-15	97527620
14/Jul/1995-16	154547246
14/Jul/1995-17	103426275
14/Jul/1995-18	61257404
14/Jul/1995-19	77831235
14/Jul/1995-20	69958720
14/Jul/1995-21	63356410
14/Jul/1995-22	65966465
14/Jul/1995-23	54150338
15/Jul/1995-00	49964187
15/Jul/1995-01	43202124
15/Jul/1995-02	27785499
15/Jul/1995-03	25362576
15/Jul/1995-04	23046667
15/Jul/1995-05	20534444
15/Jul/1995-06	21839351
15/Jul/1995-07	32410327
15/Jul/1995-08	26152256
15/Jul/1995-09	32865412
15/Jul/1995-10	42245859
15/Jul/1995-11	39563786
15/Jul/1995-12	50626654
15/Jul/1995-13	57488457
15/Jul/1995-14	48873962
15/Jul/1995-15	50254712
15/Jul/1995-16	61209424
15/Jul/1995-17	53302487
15/Jul/1995-18	41463410
15/Jul/1995-19	48635676
15/Jul/1995-20	49278955
15/Jul/1995-21	46320709
15/Jul/1995-22	39309816
15/Jul/1995-23	44248015
16/Jul/1995-00	40788934
16/Jul/1995-01	39779772
16/Jul/1995-02	26092304
16/Jul/1995-03	24160358
16/Jul/1995-04	11954757
16/Jul/1995-05	13188400
16/Jul/1995-06	16028557
16/Jul/1995-07	18544697
16/Jul/1995-08	16168292
16/Jul/1995-09	26935968
16/Jul/1995-10	34408967
16/Jul/1995-11	37874540
16/Jul/1995-12	59111979
16/Jul/1995-13	53985559
16/Jul/1995-14	60368930
16/Jul/1995-15	55780028
16/Jul/1995-16	68271233
16/Jul/1995-17	69944550
16/Jul/1995-18	64840103
16/Jul/1995-19	55993043
16/Jul/1995-20	60178317
16/Jul/1995-21	66791620
16/Jul/1995-22	65123318
16/Jul/1995-23	54543798
17/Jul/1995-00	42399298
17/Jul/1995-01	34588283
17/Jul/1995-02	18686883
17/Jul/1995-03	18393246
17/Jul/1995-04	31597809
17/Jul/1995-05	19780650
17/Jul/1995-06	15261055
17/Jul/1995-07	35506394
17/Jul/1995-08	49704231
17/Jul/1995-09	72571612
17/Jul/1995-10	75959012
17/Jul/1995-11	76369910
17/Jul/1995-12	87831379
17/Jul/1995-13	96956141
17/Jul/1995-14	116561753
17/Jul/1995-15	88531869
17/Jul/1995-16	110625650
17/Jul/1995-17	84710939
17/Jul/1995-18	79533574
17/Jul/1995-19	55754320
17/Jul/1995-20	50966691
17/Jul/1995-21	67831246
17/Jul/1995-22	56270010
17/Jul/1995-23	46330034
18/Jul/1995-00	42299464
18/Jul/1995-01	59252319
18/Jul/1995-02	45263500
18/Jul/1995-03	21826626
18/Jul/1995-04	4367545
18/Jul/1995-05	12461953
18/Jul/1995-06	7676851
18/Jul/1995-07	8147641
18/Jul/1995-08	46785341
18/Jul/1995-09	62077162
18/Jul/1995-10	44595410
18/Jul/1995-11	72807154
18/Jul/1995-12	76224920
18/Jul/1995-13	81744339
18/Jul/1995-14	88267666
18/Jul/1995-15	102372198
18/Jul/1995-16	88350170
18/Jul/1995-17	43968027
18/Jul/1995-18	38135210
18/Jul/1995-19	54256617
18/Jul/1995-20	47045987
18/Jul/1995-21	44041718
18/Jul/1995-22	38378673
18/Jul/1995-23	47281176
19/Jul/1995-00	34010109
19/Jul/1995-01	30388802
19/Jul/1995-02	32708976
19/Jul/1995-03	27195041
19/Jul/1995-04	28710627
19/Jul/1995-05	31828448
19/Jul/1995-06	21059765
19/Jul/1995-07	42288191
19/Jul/1995-08	59895904
19/Jul/1995-09	61057865
19/Jul/1995-10	76029172
19/Jul/1995-11	71472811
19/Jul/1995-12	84397857
19/Jul/1995-13	83498408
19/Jul/1995-14	81514267
19/Jul/1995-15	93047620
19/Jul/1995-16	86207941
19/Jul/1995-17	88301367
19/Jul/1995-18	61038813
19/Jul/1995-19	69497930
19/Jul/1995-20	69582636
19/Jul/1995-21	53232349
19/Jul/1995-22	34570348
19/Jul/1995-23	38284434
20/Jul/1995-00	41007115
20/Jul/1995-01	35084510
20/Jul/1995-02	41324371
20/Jul/1995-03	21874605
20/Jul/1995-04	22799301
20/Jul/1995-05	19804158
20/Jul/1995-06	21204051
20/Jul/1995-07	40411027
20/Jul/1995-08	48535463
20/Jul/1995-09	48142746
20/Jul/1995-10	86251532
20/Jul/1995-11	86106656
20/Jul/1995-12	91254549
20/Jul/1995-13	76667067
20/Jul/1995-14	75533338
20/Jul/1995-15	93965029
20/Jul/1995-16	90904771
20/Jul/1995-17	67472752
20/Jul/1995-18	38301172
20/Jul/1995-19	30469443
20/Jul/1995-20	27281234
20/Jul/1995-21	31811483
20/Jul/1995-22	32986284
20/Jul/1995-23	36586243
21/Jul/1995-00	33146937
21/Jul/1995-01	22304642
21/Jul/1995-02	23767501
21/Jul/1995-03	12723409
21/Jul/1995-04	17488539
21/Jul/1995-05	18087415
21/Jul/1995-06	15548051
21/Jul/1995-07	44639517
21/Jul/1995-08	69627806
21/Jul/1995-09	61027345
21/Jul/1995-10	73698831
21/Jul/1995-11	78520630
21/Jul/1995-12	79968354
21/Jul/1995-13	84411412
21/Jul/1995-14	89318570
21/Jul/1995-15	61432934
21/Jul/1995-16	70381743
21/Jul/1995-17	68885473
21/Jul/1995-18	35716605
21/Jul/1995-19	31185108
21/Jul/1995-20	30288279
21/Jul/1995-21	46662726
21/Jul/1995-22	26391414
21/Jul/1995-23	35987673
22/Jul/1995-00	26861574
22/Jul/1995-01	34911207
22/Jul/1995-02	25010247
22/Jul/1995-03	21093035
22/Jul/1995-04	19339627
22/Jul/1995-05	12690703
22/Jul/1995-06	12978169
22/Jul/1995-07	11935541
22/Jul/1995-08	31794559
22/Jul/1995-09	16960119
22/Jul/1995-10	29704944
22/Jul/1995-11	22114923
22/Jul/1995-12	36947810
22/Jul/1995-13	40955763
22/Jul/1995-14	36944515
22/Jul/1995-15	41592745
22/Jul/1995-16	38485889
22/Jul/1995-17	30599524
22/Jul/1995-18	30956442
22/Jul/1995-19	18600794
22/Jul/1995-20	31573514
22/Jul/1995-21	18248963
22/Jul/1995-22	27275379
22/Jul/1995-23	49215851
23/Jul/1995-00	32263255
23/Jul/1995-01	33132035
23/Jul/1995-02	23290169
23/Jul/1995-03	15962300
23/Jul/1995-04	17219601
23/Jul/1995-05	20833319
23/Jul/1995-06	18941607
23/Jul/1995-07	10966397
23/Jul/1995-08	36901162
23/Jul/1995-09	23143430
23/Jul/1995-10	24803100
23/Jul/1995-11	35528837
23/Jul/1995-12	34667577
23/Jul/1995-13	38985041
23/Jul/1995-14	29178114
23/Jul/1995-15	39240343
23/Jul/1995-16	46736467
23/Jul/1995-17	43110683
23/Jul/1995-18	31614057
23/Jul/1995-19	28169230
23/Jul/1995-20	52775261
23/Jul/1995-21	46950993
23/Jul/1995-22	40990698
23/Jul/1995-23	40737900
24/Jul/1995-00	39619167
24/Jul/1995-01	36835008
24/Jul/1995-02	20721562
24/Jul/1995-03	16771383
24/Jul/1995-04	18856895
24/Jul/1995-05	14592428
24/Jul/1995-06	24220343
24/Jul/1995-07	33258427
24/Jul/1995-08	53327933
24/Jul/1995-09	56612591
24/Jul/1995-10	54626799
24/Jul/1995-11	64429340
24/Jul/1995-12	81346049
24/Jul/1995-13	105067471
24/Jul/1995-14	92511994
24/Jul/1995-15	108653765
24/Jul/1995-16	103917965
24/Jul/1995-17	65623331
24/Jul/1995-18	45590457
24/Jul/1995-19	50449533
24/Jul/1995-20	29152440
24/Jul/1995-21	38772011
24/Jul/1995-22	30834246
24/Jul/1995-23	27292751
25/Jul/1995-00	33181733
25/Jul/1995-01	27797093
25/Jul/1995-02	18752441
25/Jul/1995-03	27106976
25/Jul/1995-04	29773912
25/Jul/1995-05	11993339
25/Jul/1995-06	16057639
25/Jul/1995-07	22426834
25/Jul/1995-08	35363166
25/Jul/1995-09	66299234
25/Jul/1995-10	64045180
25/Jul/1995-11	65367624
25/Jul/1995-12	94636880
25/Jul/1995-13	88537467
25/Jul/1995-14	59631655
25/Jul/1995-15	71988330
25/Jul/1995-16	88987679
25/Jul/1995-17	81580525
25/Jul/1995-18	41169747
25/Jul/1995-19	50480935
25/Jul/1995-20	50108202
25/Jul/1995-21	38292723
25/Jul/1995-22	34511222
25/Jul/1995-23	30372502
26/Jul/1995-00	17361072
26/Jul/1995-01	24982281
26/Jul/1995-02	23968401
26/Jul/1995-03	25675976
26/Jul/1995-04	30785665
26/Jul/1995-05	19128269
26/Jul/1995-06	14203538
26/Jul/1995-07	33738160
26/Jul/1995-08	43468004
26/Jul/1995-09	35117540
26/Jul/1995-10	26241336
26/Jul/1995-11	52412665
26/Jul/1995-12	79169614
26/Jul/1995-13	76747342
26/Jul/1995-14	83177200
26/Jul/1995-15	78789898
26/Jul/1995-16	61821552
26/Jul/1995-17	56648114
26/Jul/1995-18	63556278
26/Jul/1995-19	35983415
26/Jul/1995-20	41838160
26/Jul/1995-21	33763945
26/Jul/1995-22	41868920
26/Jul/1995-23	40862724
27/Jul/1995-00	46131504
27/Jul/1995-01	30702454
27/Jul/1995-02	23064574
27/Jul/1995-03	23372605
27/Jul/1995-04	24665886
27/Jul/1995-05	21367909
27/Jul/1995-06	27734062
27/Jul/1995-07	25014334
27/Jul/1995-08	53694326
27/Jul/1995-09	51554077
27/Jul/1995-10	57464145
27/Jul/1995-11	70190781
27/Jul/1995-12	71346338
27/Jul/1995-13	83111239
27/Jul/1995-14	89530296
27/Jul/1995-15	62757344
27/Jul/1995-16	71511654
27/Jul/1995-17	72967108
27/Jul/1995-18	41548144
27/Jul/1995-19	37307479
27/Jul/1995-20	37577752
27/Jul/1995-21	40544633
27/Jul/1995-22	31755555
27/Jul/1995-23	29872724
28/Jul/1995-00	25669208
28/Jul/1995-01	19045434
28/Jul/1995-02	20561722
28/Jul/1995-03	24666411
28/Jul/1995-04	19550505
28/Jul/1995-05	13571770
28/Jul/1995-06	19635985
28/Jul/1995-07	40859384
28/Jul/1995-08	54575580
28/Jul/1995-09	50513110
28/Jul/1995-10	64334309
28/Jul/1995-11	53773139
28/Jul/1995-12	56491850
28/Jul/1995-13	25911163
Error	190238
Error:Undefined	30
