01/Jul/1995-00	24
01/Jul/1995-01	10
01/Jul/1995-02	12
01/Jul/1995-03	15
01/Jul/1995-04	10
01/Jul/1995-05	9
01/Jul/1995-06	4
01/Jul/1995-07	2
01/Jul/1995-08	6
01/Jul/1995-09	3
01/Jul/1995-10	13
01/Jul/1995-11	23
01/Jul/1995-12	10
01/Jul/1995-13	13
01/Jul/1995-14	19
01/Jul/1995-15	17
01/Jul/1995-16	14
01/Jul/1995-17	15
01/Jul/1995-18	15
01/Jul/1995-19	16
01/Jul/1995-20	10
01/Jul/1995-21	24
01/Jul/1995-22	18
01/Jul/1995-23	13
02/Jul/1995-00	20
02/Jul/1995-01	15
02/Jul/1995-02	8
02/Jul/1995-03	7
02/Jul/1995-04	2
02/Jul/1995-05	3
02/Jul/1995-06	10
02/Jul/1995-07	8
02/Jul/1995-08	16
02/Jul/1995-09	14
02/Jul/1995-10	7
02/Jul/1995-11	9
02/Jul/1995-12	14
02/Jul/1995-13	12
02/Jul/1995-14	11
02/Jul/1995-15	14
02/Jul/1995-16	32
02/Jul/1995-17	4
02/Jul/1995-18	15
02/Jul/1995-19	9
02/Jul/1995-20	10
02/Jul/1995-21	11
02/Jul/1995-22	17
02/Jul/1995-23	28
03/Jul/1995-00	15
03/Jul/1995-01	8
03/Jul/1995-02	12
03/Jul/1995-03	6
03/Jul/1995-04	7
03/Jul/1995-05	7
03/Jul/1995-06	6
03/Jul/1995-07	17
03/Jul/1995-08	14
03/Jul/1995-09	58
03/Jul/1995-10	72
03/Jul/1995-11	17
03/Jul/1995-12	21
03/Jul/1995-13	15
03/Jul/1995-14	36
03/Jul/1995-15	27
03/Jul/1995-16	29
03/Jul/1995-17	37
03/Jul/1995-18	13
03/Jul/1995-19	20
03/Jul/1995-20	17
03/Jul/1995-21	19
03/Jul/1995-22	18
03/Jul/1995-23	37
04/Jul/1995-00	13
04/Jul/1995-01	20
04/Jul/1995-02	10
04/Jul/1995-03	9
04/Jul/1995-05	8
04/Jul/1995-06	5
04/Jul/1995-07	3
04/Jul/1995-08	13
04/Jul/1995-09	12
04/Jul/1995-10	17
04/Jul/1995-11	28
04/Jul/1995-12	11
04/Jul/1995-13	18
04/Jul/1995-14	19
04/Jul/1995-15	23
04/Jul/1995-16	30
04/Jul/1995-17	17
04/Jul/1995-18	41
04/Jul/1995-19	3
04/Jul/1995-20	10
04/Jul/1995-21	12
04/Jul/1995-22	12
04/Jul/1995-23	27
05/Jul/1995-00	25
05/Jul/1995-01	34
05/Jul/1995-02	8
05/Jul/1995-03	8
05/Jul/1995-04	4
05/Jul/1995-05	4
05/Jul/1995-06	5
05/Jul/1995-07	15
05/Jul/1995-08	29
05/Jul/1995-09	20
05/Jul/1995-10	21
05/Jul/1995-11	12
05/Jul/1995-12	22
05/Jul/1995-13	8
05/Jul/1995-14	32
05/Jul/1995-15	38
05/Jul/1995-16	35
05/Jul/1995-17	17
05/Jul/1995-18	33
05/Jul/1995-19	22
05/Jul/1995-20	21
05/Jul/1995-21	9
05/Jul/1995-22	26
05/Jul/1995-23	49
06/Jul/1995-00	24
06/Jul/1995-01	38
06/Jul/1995-02	5
06/Jul/1995-03	2
06/Jul/1995-04	6
06/Jul/1995-05	7
06/Jul/1995-06	14
06/Jul/1995-07	6
06/Jul/1995-08	14
06/Jul/1995-09	23
06/Jul/1995-10	49
06/Jul/1995-11	35
06/Jul/1995-12	56
06/Jul/1995-13	23
06/Jul/1995-14	31
06/Jul/1995-15	34
06/Jul/1995-16	36
06/Jul/1995-17	33
06/Jul/1995-18	31
06/Jul/1995-19	32
06/Jul/1995-20	27
06/Jul/1995-21	38
06/Jul/1995-22	43
06/Jul/1995-23	32
07/Jul/1995-00	13
07/Jul/1995-01	18
07/Jul/1995-02	15
07/Jul/1995-03	12
07/Jul/1995-04	15
07/Jul/1995-05	6
07/Jul/1995-06	8
07/Jul/1995-07	10
07/Jul/1995-08	33
07/Jul/1995-09	24
07/Jul/1995-10	33
07/Jul/1995-11	29
07/Jul/1995-12	24
07/Jul/1995-13	39
07/Jul/1995-14	24
07/Jul/1995-15	37
07/Jul/1995-16	42
07/Jul/1995-17	32
07/Jul/1995-18	34
07/Jul/1995-19	27
07/Jul/1995-20	15
07/Jul/1995-21	24
07/Jul/1995-22	32
07/Jul/1995-23	24
08/Jul/1995-00	23
08/Jul/1995-01	12
08/Jul/1995-02	22
08/Jul/1995-03	4
08/Jul/1995-04	2
08/Jul/1995-05	6
08/Jul/1995-06	1
08/Jul/1995-07	2
08/Jul/1995-08	2
08/Jul/1995-09	10
08/Jul/1995-10	11
08/Jul/1995-11	16
08/Jul/1995-12	19
08/Jul/1995-13	8
08/Jul/1995-14	25
08/Jul/1995-15	16
08/Jul/1995-16	25
08/Jul/1995-17	19
08/Jul/1995-18	20
08/Jul/1995-19	12
08/Jul/1995-20	9
08/Jul/1995-21	17
08/Jul/1995-22	13
08/Jul/1995-23	6
09/Jul/1995-00	11
09/Jul/1995-01	9
09/Jul/1995-02	25
09/Jul/1995-03	7
09/Jul/1995-04	16
09/Jul/1995-06	7
09/Jul/1995-07	3
09/Jul/1995-09	10
09/Jul/1995-10	18
09/Jul/1995-11	19
09/Jul/1995-12	11
09/Jul/1995-13	13
09/Jul/1995-14	13
09/Jul/1995-15	19
09/Jul/1995-16	18
09/Jul/1995-17	15
09/Jul/1995-18	13
09/Jul/1995-19	26
09/Jul/1995-20	34
09/Jul/1995-21	26
09/Jul/1995-22	21
09/Jul/1995-23	8
10/Jul/1995-00	6
10/Jul/1995-01	7
10/Jul/1995-02	8
10/Jul/1995-03	1
10/Jul/1995-04	1
10/Jul/1995-05	5
10/Jul/1995-06	4
10/Jul/1995-07	5
10/Jul/1995-08	16
10/Jul/1995-09	19
10/Jul/1995-10	11
10/Jul/1995-11	35
10/Jul/1995-12	28
10/Jul/1995-13	16
10/Jul/1995-14	31
10/Jul/1995-15	41
10/Jul/1995-16	22
10/Jul/1995-17	23
10/Jul/1995-18	19
10/Jul/1995-19	13
10/Jul/1995-20	16
10/Jul/1995-21	22
10/Jul/1995-22	20
10/Jul/1995-23	25
11/Jul/1995-00	21
11/Jul/1995-01	36
11/Jul/1995-02	12
11/Jul/1995-03	8
11/Jul/1995-04	9
11/Jul/1995-05	3
11/Jul/1995-06	8
11/Jul/1995-07	17
11/Jul/1995-08	29
11/Jul/1995-09	18
11/Jul/1995-10	15
11/Jul/1995-11	19
11/Jul/1995-12	16
11/Jul/1995-13	21
11/Jul/1995-14	64
11/Jul/1995-15	38
11/Jul/1995-16	15
11/Jul/1995-17	30
11/Jul/1995-18	16
11/Jul/1995-19	25
11/Jul/1995-20	16
11/Jul/1995-21	11
11/Jul/1995-22	18
11/Jul/1995-23	5
12/Jul/1995-00	6
12/Jul/1995-01	9
12/Jul/1995-02	8
12/Jul/1995-03	1
12/Jul/1995-04	1
12/Jul/1995-05	4
12/Jul/1995-06	4
12/Jul/1995-07	12
12/Jul/1995-08	8
12/Jul/1995-09	9
12/Jul/1995-10	82
12/Jul/1995-11	29
12/Jul/1995-12	40
12/Jul/1995-13	35
12/Jul/1995-14	19
12/Jul/1995-15	31
12/Jul/1995-16	25
12/Jul/1995-17	29
12/Jul/1995-18	24
12/Jul/1995-19	18
12/Jul/1995-20	15
12/Jul/1995-21	29
12/Jul/1995-22	21
12/Jul/1995-23	12
13/Jul/1995-00	20
13/Jul/1995-01	20
13/Jul/1995-02	4
13/Jul/1995-03	13
13/Jul/1995-04	5
13/Jul/1995-05	15
13/Jul/1995-06	11
13/Jul/1995-07	11
13/Jul/1995-08	30
13/Jul/1995-09	31
13/Jul/1995-10	38
13/Jul/1995-11	76
13/Jul/1995-12	23
13/Jul/1995-13	20
13/Jul/1995-14	38
13/Jul/1995-15	41
13/Jul/1995-16	36
13/Jul/1995-17	10
13/Jul/1995-18	13
13/Jul/1995-19	8
13/Jul/1995-20	30
13/Jul/1995-21	6
13/Jul/1995-22	20
13/Jul/1995-23	12
14/Jul/1995-00	12
14/Jul/1995-01	8
14/Jul/1995-02	7
14/Jul/1995-03	5
14/Jul/1995-04	6
14/Jul/1995-05	10
14/Jul/1995-06	5
14/Jul/1995-07	9
14/Jul/1995-08	13
14/Jul/1995-09	36
14/Jul/1995-10	21
14/Jul/1995-11	22
14/Jul/1995-12	20
14/Jul/1995-13	34
14/Jul/1995-14	27
14/Jul/1995-15	36
14/Jul/1995-16	12
14/Jul/1995-17	47
14/Jul/1995-18	13
14/Jul/1995-19	8
14/Jul/1995-20	22
14/Jul/1995-21	18
14/Jul/1995-22	12
14/Jul/1995-23	8
15/Jul/1995-00	25
15/Jul/1995-01	4
15/Jul/1995-02	12
15/Jul/1995-03	11
15/Jul/1995-04	1
15/Jul/1995-05	11
15/Jul/1995-06	6
15/Jul/1995-07	11
15/Jul/1995-08	1
15/Jul/1995-09	2
15/Jul/1995-10	17
15/Jul/1995-11	7
15/Jul/1995-12	11
15/Jul/1995-13	13
15/Jul/1995-14	6
15/Jul/1995-15	8
15/Jul/1995-16	10
15/Jul/1995-17	12
15/Jul/1995-18	13
15/Jul/1995-19	19
15/Jul/1995-20	8
15/Jul/1995-21	19
15/Jul/1995-22	16
15/Jul/1995-23	10
16/Jul/1995-00	3
16/Jul/1995-01	5
16/Jul/1995-02	2
16/Jul/1995-03	7
16/Jul/1995-04	1
16/Jul/1995-05	1
16/Jul/1995-06	5
16/Jul/1995-07	5
16/Jul/1995-08	6
16/Jul/1995-09	6
16/Jul/1995-10	7
16/Jul/1995-11	13
16/Jul/1995-12	11
16/Jul/1995-13	24
16/Jul/1995-14	4
16/Jul/1995-15	27
16/Jul/1995-16	4
16/Jul/1995-17	11
16/Jul/1995-18	10
16/Jul/1995-19	18
16/Jul/1995-20	24
16/Jul/1995-21	15
16/Jul/1995-22	18
16/Jul/1995-23	29
17/Jul/1995-00	11
17/Jul/1995-01	10
17/Jul/1995-02	4
17/Jul/1995-03	8
17/Jul/1995-04	2
17/Jul/1995-05	6
17/Jul/1995-06	1
17/Jul/1995-07	6
17/Jul/1995-08	14
17/Jul/1995-09	12
17/Jul/1995-10	37
17/Jul/1995-11	20
17/Jul/1995-12	47
17/Jul/1995-13	34
17/Jul/1995-14	24
17/Jul/1995-15	24
17/Jul/1995-16	20
17/Jul/1995-17	25
17/Jul/1995-18	19
17/Jul/1995-19	13
17/Jul/1995-20	8
17/Jul/1995-21	20
17/Jul/1995-22	27
17/Jul/1995-23	15
18/Jul/1995-00	25
18/Jul/1995-01	5
18/Jul/1995-02	6
18/Jul/1995-03	7
18/Jul/1995-07	5
18/Jul/1995-08	9
18/Jul/1995-09	28
18/Jul/1995-10	28
18/Jul/1995-11	21
18/Jul/1995-12	29
18/Jul/1995-13	20
18/Jul/1995-14	60
18/Jul/1995-15	107
18/Jul/1995-16	48
18/Jul/1995-17	10
18/Jul/1995-18	7
18/Jul/1995-19	22
18/Jul/1995-20	11
18/Jul/1995-21	5
18/Jul/1995-22	15
18/Jul/1995-23	16
19/Jul/1995-00	9
19/Jul/1995-01	4
19/Jul/1995-02	4
19/Jul/1995-03	3
19/Jul/1995-04	9
19/Jul/1995-06	2
19/Jul/1995-07	31
19/Jul/1995-08	24
19/Jul/1995-09	15
19/Jul/1995-10	45
19/Jul/1995-11	68
19/Jul/1995-12	77
19/Jul/1995-13	68
19/Jul/1995-14	70
19/Jul/1995-15	62
19/Jul/1995-16	25
19/Jul/1995-17	36
19/Jul/1995-18	16
19/Jul/1995-19	10
19/Jul/1995-20	11
19/Jul/1995-21	18
19/Jul/1995-22	24
19/Jul/1995-23	7
20/Jul/1995-00	12
20/Jul/1995-01	6
20/Jul/1995-02	19
20/Jul/1995-03	9
20/Jul/1995-04	2
20/Jul/1995-05	7
20/Jul/1995-06	2
20/Jul/1995-07	10
20/Jul/1995-08	9
20/Jul/1995-09	21
20/Jul/1995-10	17
20/Jul/1995-11	22
20/Jul/1995-12	48
20/Jul/1995-13	16
20/Jul/1995-14	21
20/Jul/1995-15	35
20/Jul/1995-16	48
20/Jul/1995-17	47
20/Jul/1995-18	16
20/Jul/1995-19	15
20/Jul/1995-20	7
20/Jul/1995-21	6
20/Jul/1995-22	16
20/Jul/1995-23	16
21/Jul/1995-00	23
21/Jul/1995-01	4
21/Jul/1995-02	13
21/Jul/1995-03	17
21/Jul/1995-04	5
21/Jul/1995-05	5
21/Jul/1995-06	5
21/Jul/1995-07	9
21/Jul/1995-08	9
21/Jul/1995-09	24
21/Jul/1995-10	14
21/Jul/1995-11	25
21/Jul/1995-12	14
21/Jul/1995-13	17
21/Jul/1995-14	40
21/Jul/1995-15	11
21/Jul/1995-16	17
21/Jul/1995-17	24
21/Jul/1995-18	14
21/Jul/1995-19	7
21/Jul/1995-20	7
21/Jul/1995-21	6
21/Jul/1995-22	12
21/Jul/1995-23	10
22/Jul/1995-00	15
22/Jul/1995-01	8
22/Jul/1995-02	4
22/Jul/1995-03	5
22/Jul/1995-04	3
22/Jul/1995-05	8
22/Jul/1995-06	2
22/Jul/1995-07	5
22/Jul/1995-08	3
22/Jul/1995-09	7
22/Jul/1995-10	6
22/Jul/1995-11	14
22/Jul/1995-12	6
22/Jul/1995-13	4
22/Jul/1995-14	8
22/Jul/1995-15	9
22/Jul/1995-16	24
22/Jul/1995-17	18
22/Jul/1995-18	11
22/Jul/1995-19	5
22/Jul/1995-20	7
22/Jul/1995-21	4
22/Jul/1995-22	3
22/Jul/1995-23	13
23/Jul/1995-00	11
23/Jul/1995-01	6
23/Jul/1995-02	6
23/Jul/1995-03	27
23/Jul/1995-04	12
23/Jul/1995-05	3
23/Jul/1995-06	1
23/Jul/1995-07	4
23/Jul/1995-08	7
23/Jul/1995-09	4
23/Jul/1995-10	14
23/Jul/1995-11	11
23/Jul/1995-12	4
23/Jul/1995-13	6
23/Jul/1995-14	7
23/Jul/1995-15	9
23/Jul/1995-16	5
23/Jul/1995-17	4
23/Jul/1995-18	12
23/Jul/1995-19	9
23/Jul/1995-20	10
23/Jul/1995-21	30
23/Jul/1995-22	16
23/Jul/1995-23	12
24/Jul/1995-00	27
24/Jul/1995-01	1
24/Jul/1995-02	5
24/Jul/1995-03	29
24/Jul/1995-04	15
24/Jul/1995-05	7
24/Jul/1995-06	6
24/Jul/1995-07	5
24/Jul/1995-08	13
24/Jul/1995-09	15
24/Jul/1995-10	13
24/Jul/1995-11	21
24/Jul/1995-12	17
24/Jul/1995-13	8
24/Jul/1995-14	20
24/Jul/1995-15	22
24/Jul/1995-16	9
24/Jul/1995-17	17
24/Jul/1995-18	13
24/Jul/1995-19	13
24/Jul/1995-20	8
24/Jul/1995-21	17
24/Jul/1995-22	7
24/Jul/1995-23	23
25/Jul/1995-00	5
25/Jul/1995-01	3
25/Jul/1995-02	5
25/Jul/1995-03	5
25/Jul/1995-04	2
25/Jul/1995-05	2
25/Jul/1995-06	4
25/Jul/1995-07	6
25/Jul/1995-08	9
25/Jul/1995-09	8
25/Jul/1995-10	18
25/Jul/1995-11	67
25/Jul/1995-12	34
25/Jul/1995-13	21
25/Jul/1995-14	54
25/Jul/1995-15	75
25/Jul/1995-16	30
25/Jul/1995-17	28
25/Jul/1995-18	10
25/Jul/1995-19	10
25/Jul/1995-20	17
25/Jul/1995-21	19
25/Jul/1995-22	21
25/Jul/1995-23	13
26/Jul/1995-00	5
26/Jul/1995-01	10
26/Jul/1995-02	8
26/Jul/1995-03	1
26/Jul/1995-04	15
26/Jul/1995-05	3
26/Jul/1995-06	4
26/Jul/1995-07	5
26/Jul/1995-08	17
26/Jul/1995-09	6
26/Jul/1995-10	8
26/Jul/1995-11	29
26/Jul/1995-12	19
26/Jul/1995-13	16
26/Jul/1995-14	28
26/Jul/1995-15	14
26/Jul/1995-16	17
26/Jul/1995-17	28
26/Jul/1995-18	43
26/Jul/1995-19	20
26/Jul/1995-20	10
26/Jul/1995-21	7
26/Jul/1995-22	10
26/Jul/1995-23	5
27/Jul/1995-00	18
27/Jul/1995-01	6
27/Jul/1995-02	14
27/Jul/1995-03	5
27/Jul/1995-04	11
27/Jul/1995-05	6
27/Jul/1995-06	3
27/Jul/1995-07	15
27/Jul/1995-08	6
27/Jul/1995-09	35
27/Jul/1995-10	6
27/Jul/1995-11	35
27/Jul/1995-12	13
27/Jul/1995-13	14
27/Jul/1995-14	22
27/Jul/1995-15	24
27/Jul/1995-16	13
27/Jul/1995-17	26
27/Jul/1995-18	17
27/Jul/1995-19	14
27/Jul/1995-20	2
27/Jul/1995-21	14
27/Jul/1995-22	10
27/Jul/1995-23	11
28/Jul/1995-00	7
28/Jul/1995-01	4
28/Jul/1995-02	11
28/Jul/1995-03	6
28/Jul/1995-04	5
28/Jul/1995-05	2
28/Jul/1995-07	4
28/Jul/1995-08	10
28/Jul/1995-09	12
28/Jul/1995-10	9
28/Jul/1995-11	13
28/Jul/1995-12	8
28/Jul/1995-13	2
Error01:Undefined	0
